LOAD

ELIMINATE ROW 3

ELIMINATE COL 0

ELIMINATE BOX [0,3]

PRINT:
+=======+=======+=======+
| 1 . . | . . . | . . . |
| 2 . . | . . . | . . . |
| 3 . . | . . . | . . . |
+=======+=======+=======+
| ! . . | . . . | . . 4 |
| 5 . . | . . . | . . . |
| 6 . . | . . . | . . . |
+=======+=======+=======+
| 7 . . | . . . | . . . |
| 8 . . | . . . | . . . |
| 9 . . | . . . | . . . |
+=======+=======+=======+
